<!--
  http://www.cyross.com/pc8801wiki/index.php/Template:Version を参照して記述
-->

{{Version
|n =未確認
|n0=未確認
|ns=未確認
|v1=ROM-BASIC(初代/mkⅡ除く)<br/>DISK-BASIC
|v2=ROM-BASIC<br/>DISK-BASIC<br/>日本語BASIC
|v3=v3.0<br/>v3.1
|n9=未確認
|86=未確認
|ms=未確認
}}

<!-- 
  http://www.cyross.com/pc8801wiki/index.php/Template:CommandCategory を参照し、
  BASICリファレンス目次 http://www.cyross.com/pc8801wiki/index.php/BASIC%E3%83%AA%E3%83%95%E3%82%A1%E3%83%AC%E3%83%B3%E3%82%B9 
  の分類にしたがって記述
-->

{{CommandCategory
|cat1=★★要記入★★
|cat2=★★要記入★★
}}

== 機能 ==
★ですます調に変更してください。
マシン語ルーチンを呼び出し

== 書式 ==
<!-- 
  ヘルプ ( http://www.cyross.com/pc8801wiki/index.php/%E3%83%98%E3%83%AB%E3%83%97 ) を参照。
  ・[A]    Aを省略可
  ・<A|B>  AまたはBを指定
  ・{A}    Aを繰り返し指定可能。省略も可。
-->

★ 書式に省略可能な繰り返し [,引数...] が含まれている場合は、{,引数} に変更してください。
CALL 変数名 [ ( 引数 [ , 引数... ] ) ]

== 解説 ==

★なるべく、ですます調に変更してください。分量が多い場合はそのままで構いません。


マシン語ルーチンを呼び出す。マシン語ルーチンのアドレスは変数に格納しておき、その変数名を指定して呼び出す。引数には任意の型の変数を指定できる。定数、式は指定できない。

マシン語ルーチンには、引数として指定された変数の情報が次のようにレジスタに渡される。引数の個数は受け取ることができない。
*引数が3個以下の場合、HL、DE、BCにそれぞれ1、2、3番目の引数の変数のアドレスが入る。
*引数が4個以上の場合
*; HL
*: 1番目の引数の変数のアドレス
*; DE
*: 2番目の引数の変数のアドレス
*; BC
*: テーブルのアドレス。テーブルには3番目、4番目、…の引数の変数のアドレス(各2バイト)が格納される。
*変数のアドレスは、VARPTR関数が返す値と同じ。

BASICに戻るにはRETを実行する。値を返したい場合は変数の値を書き換えると良い。

マシン語ルーチンに用意されたスタックは16バイト。それ以上必要な場合は独自に用意すること。


<!-- 「解説」内に例が含まれている場合には、余力があれば、以下の形式に書き改めてください。

== 例 ==

<code>AUTO</code>
* 10行目から10行刻みで行番号を発生させます。
<code>AUTO 500, 5</code>
* 500行目から5行刻みで行番号を発生させます。

== プログラム例 ==

全体をpreで囲む。不等号やアンパサンドはそのまま記述可。

<pre>
10 I = 10;
20 WHILE I>0 AND I<11 
30 PRINT "HELLO! PC-8001&PC-8801&PC-9801"
40 I = I - 1
50 WEND
</pre>

-->

== 参照 ==
★★以下の参照先は、BASICリファレンス目次 http://www.cyross.com/pc8801wiki/index.php/BASIC%E3%83%AA%E3%83%95%E3%82%A1%E3%83%AC%E3%83%B3%E3%82%B9 を参照して適切な名前に修正してください。
* [[VARPTR]]
* [[DEF USR]]
* [[BLOAD]]
