<!--
  http://www.cyross.com/pc8801wiki/index.php/Template:Version を参照して記述
-->

{{Version
|n =未確認
|n0=未確認
|ns=未確認
|v1=DISK-BASIC
|v2=DISK-BASIC<br/>日本語BASIC
|v3=v3.0<br/>v3.1
|n9=未確認
|86=未確認
|ms=未確認
}}

<!-- 
  http://www.cyross.com/pc8801wiki/index.php/Template:CommandCategory を参照し、
  BASICリファレンス目次 http://www.cyross.com/pc8801wiki/index.php/BASIC%E3%83%AA%E3%83%95%E3%82%A1%E3%83%AC%E3%83%B3%E3%82%B9 
  の分類にしたがって記述
-->

{{CommandCategory
|cat1=★★要記入★★
|cat2=★★要記入★★
}}

== 機能 ==
★ですます調に変更してください。
ファイル・ディスクの属性を設定

== 書式 ==
<!-- 
  ヘルプ ( http://www.cyross.com/pc8801wiki/index.php/%E3%83%98%E3%83%AB%E3%83%97 ) を参照。
  ・[A]    Aを省略可
  ・<A|B>  AまたはBを指定
  ・{A}    Aを繰り返し指定可能。省略も可。
-->

★ 書式に省略可能な繰り返し [,引数...] が含まれている場合は、{,引数} に変更してください。
; 書式1
: SET ドライブ番号 , 属性文字
; 書式2
: SET ファイルディスクリプタ , 属性文字
; 書式3
: SET #ファイル番号 , 属性文字

== 解説 ==

★なるべく、ですます調に変更してください。分量が多い場合はそのままで構いません。


指定のフロッピーディスクやファイルに属性を付ける。属性は文字列で、以下の中から指定する。
; <code>"P"</code>
: 書き込み禁止。書き込みと削除が不可能になる。
; <code>"R"</code>
: 書き込み確認。データの書き込み時は、直後に読み出しメモリの内容と比較することで正常に書き込みまれたかを確認する。
; <code>その他</code>
: すべての属性を解除する。

書式1は、ドライブ番号(1～)のフロッピーに対して、書式2, 3は個別のファイルに対して属性を設定する。 書式3は実行するとそれ以降のそのファイルへの書き込みに対して属性が機能する。
:<code>SET "1:bitinn.his","P"</code> ⇒ ドライブ1の"bitinn.his"を書き込み禁止に。


<!-- 「解説」内に例が含まれている場合には、余力があれば、以下の形式に書き改めてください。

== 例 ==

<code>AUTO</code>
* 10行目から10行刻みで行番号を発生させます。
<code>AUTO 500, 5</code>
* 500行目から5行刻みで行番号を発生させます。

== プログラム例 ==

全体をpreで囲む。不等号やアンパサンドはそのまま記述可。

<pre>
10 I = 10;
20 WHILE I>0 AND I<11 
30 PRINT "HELLO! PC-8001&PC-8801&PC-9801"
40 I = I - 1
50 WEND
</pre>

-->

== 参照 ==
★★以下の参照先は、BASICリファレンス目次 http://www.cyross.com/pc8801wiki/index.php/BASIC%E3%83%AA%E3%83%95%E3%82%A1%E3%83%AC%E3%83%B3%E3%82%B9 を参照して適切な名前に修正してください。
* [[ATTR$]]
